{
  "schemaVersion": 1,
  "id": "toggle-skin-layers",
  "version": "${version}",

  "name": "Toggle Skin Layers",
  "description": "A simple mod that gives you the ability to bind a toggle for skin layers.",
  "authors": [
    "Michael Bartosh <mike.ebj@protonmail.com>"
  ],
  "contact": {},

  "license": "ARR",
  "icon": "assets/toggle-skin-layers/icon.png",

  "environment": "*",
  "entrypoints": {
    "main": [
      "us.mikebartosh.minecraft.toggleskinlayers.toggleSkinLayers"
    ]
  },
  "mixins": [
  ],

  "depends": {
    "fabricloader": ">=0.14.21",
    "fabric": "*",
    "minecraft": ">=1.20",
    "java": ">=17"
  },
  "suggests": {}
}
